date;hour;predicted fixing1 price; RDN fixing1 price; error
2016-08-01;0.0;109.567;122.89;13.3230062866
2016-08-01;1.0;109.296;109.89;0.593659057617
2016-08-01;2.0;107.99;99.57;8.42020385742
2016-08-01;3.0;107.355;98.85;8.5047668457
2016-08-01;4.0;106.868;93.57;13.2984310913
2016-08-01;5.0;106.963;97.91;9.0534475708
2016-08-01;6.0;108.133;128.49;20.3572866821
2016-08-01;7.0;109.225;128.85;19.6250854492
2016-08-01;8.0;109.373;154.33;44.9572659302
2016-08-01;9.0;109.497;157.07;47.5732653809
2016-08-01;10.0;109.31;156.88;47.5701092529
2016-08-01;11.0;109.327;160.75;51.4233627319
2016-08-01;12.0;109.437;160.76;51.3231027222
2016-08-01;13.0;109.22;160.89;51.6702734375
2016-08-01;14.0;109.255;158.53;49.2753384399
2016-08-01;15.0;109.196;157.16;47.9637643433
2016-08-01;16.0;109.099;152.37;43.2705279541
2016-08-01;17.0;109.037;148.38;39.3434933472
2016-08-01;18.0;109.21;149.68;40.4701687622
2016-08-01;19.0;109.478;155.48;46.0016064453
2016-08-01;20.0;109.953;155.29;45.336836853
2016-08-01;21.0;110.953;156.13;45.1765011597
2016-08-01;22.0;110.891;133.69;22.7986196899
2016-08-01;23.0;111.506;128.51;17.003927002
2016-08-02;0.0;109.607;125.09;15.483409729
2016-08-02;1.0;108.38;115.64;7.25990356445
2016-08-02;2.0;106.422;109.79;3.36849884033
2016-08-02;3.0;106.408;109.77;3.36156036377
2016-08-02;4.0;105.544;107.73;2.18610046387
2016-08-02;5.0;106.735;113.44;6.70546478271
2016-08-02;6.0;109.17;129.04;19.8701086426
2016-08-02;7.0;109.434;148.92;39.4858569336
2016-08-02;8.0;110.199;161.95;51.7508880615
2016-08-02;9.0;110.619;165.82;55.2009585571
2016-08-02;10.0;110.819;166.92;56.1014880371
2016-08-02;11.0;111.903;169.61;57.7071374512
2016-08-02;12.0;111.232;171.25;60.0184326172
2016-08-02;13.0;112.236;168.69;56.454251709
2016-08-02;14.0;112.428;165.05;52.6215484619
2016-08-02;15.0;112.43;162.65;50.2198547363
2016-08-02;16.0;111.655;157.55;45.8952377319
2016-08-02;17.0;111.246;156.22;44.9737078857
2016-08-02;18.0;112.313;154.58;42.2671109009
2016-08-02;19.0;114.28;155.87;41.5899249268
2016-08-02;20.0;114.279;157.04;42.7612524414
2016-08-02;21.0;114.469;157.34;42.8711203003
2016-08-02;22.0;109.34;138.17;28.8300341797
2016-08-02;23.0;109.56;128.76;19.1996438599
2016-08-03;0.0;109.85;127.23;17.3799481201
2016-08-03;1.0;108.942;119.77;10.8276019287
2016-08-03;2.0;108.164;115.61;7.44625793457
2016-08-03;3.0;108.465;116.17;7.7054309082
2016-08-03;4.0;108.208;114.98;6.77228973389
2016-08-03;5.0;109.858;118.0;8.14164733887
2016-08-03;6.0;109.238;130.28;21.0418637085
2016-08-03;7.0;109.395;151.8;42.4045684814
2016-08-03;8.0;112.071;159.7;47.628817749
2016-08-03;9.0;112.91;164.9;51.9904922485
2016-08-03;10.0;113.656;166.55;52.8943756104
2016-08-03;11.0;114.369;171.46;57.0905999756
2016-08-03;12.0;114.359;171.55;57.191494751
2016-08-03;13.0;114.522;166.98;52.4580578613
2016-08-03;14.0;114.324;161.87;47.5461474609
2016-08-03;15.0;114.068;160.0;45.9316558838
2016-08-03;16.0;113.236;156.71;43.473710022
2016-08-03;17.0;113.459;153.32;39.8607943726
2016-08-03;18.0;113.572;150.0;36.4281463623
2016-08-03;19.0;114.176;151.09;36.9139135742
2016-08-03;20.0;114.47;151.0;36.5304412842
2016-08-03;21.0;114.75;151.98;37.22974823
2016-08-03;22.0;110.82;131.9;21.0797332764
2016-08-03;23.0;109.719;122.35;12.6305404663
2016-08-04;0.0;109.66;122.49;12.8297827148
2016-08-04;1.0;109.864;108.23;1.6341204834
2016-08-04;2.0;109.409;100.48;8.92947723389
2016-08-04;3.0;109.825;100.49;9.33514953613
2016-08-04;4.0;109.773;100.48;9.2927355957
2016-08-04;5.0;109.544;105.42;4.12438018799
2016-08-04;6.0;109.211;128.25;19.0390090942
2016-08-04;7.0;110.017;133.9;23.8834136963
2016-08-04;8.0;111.336;155.14;43.8039709473
2016-08-04;9.0;112.56;161.74;49.1802923584
2016-08-04;10.0;113.354;162.25;48.8959732056
2016-08-04;11.0;114.865;164.43;49.5647351074
2016-08-04;12.0;114.238;165.83;51.5924664307
2016-08-04;13.0;113.841;165.89;52.0492712402
2016-08-04;14.0;112.993;162.1;49.106652832
2016-08-04;15.0;113.023;161.43;48.4070050049
2016-08-04;16.0;112.706;156.9;44.1943572998
2016-08-04;17.0;112.276;155.79;43.5138693237
2016-08-04;18.0;111.891;156.3;44.4086425781
2016-08-04;19.0;112.359;157.99;45.6310522461
2016-08-04;20.0;112.223;160.09;47.8671987915
2016-08-04;21.0;112.574;161.79;49.2155981445
2016-08-04;22.0;109.051;143.18;34.1288983154
2016-08-04;23.0;109.268;130.29;21.0220175171
2016-08-05;0.0;109.017;129.15;20.1327880859
2016-08-05;1.0;106.903;124.16;17.2572290039
2016-08-05;2.0;105.573;123.27;17.696651001
2016-08-05;3.0;105.849;123.27;17.4210925293
2016-08-05;4.0;106.125;123.27;17.1447711182
2016-08-05;5.0;107.536;123.27;15.7337374878
2016-08-05;6.0;109.328;131.71;22.3822869873
2016-08-05;7.0;109.343;154.5;45.1569671631
2016-08-05;8.0;109.779;164.22;54.4414279175
2016-08-05;9.0;111.202;181.71;70.5078973389
2016-08-05;10.0;111.446;181.72;70.2738406372
2016-08-05;11.0;111.993;182.21;70.2171258545
2016-08-05;12.0;111.694;184.47;72.776350708
2016-08-05;13.0;112.769;179.59;66.8208502197
2016-08-05;14.0;112.368;172.52;60.152019043
2016-08-05;15.0;112.729;162.58;49.8514080811
2016-08-05;16.0;111.977;156.95;44.9733230591
2016-08-05;17.0;112.327;155.51;43.1826074219
2016-08-05;18.0;113.206;151.26;38.0539758301
2016-08-05;19.0;113.979;151.27;37.2910113525
2016-08-05;20.0;114.557;154.55;39.992741394
2016-08-05;21.0;115.016;153.21;38.1941384888
2016-08-05;22.0;111.29;132.3;21.0103729248
2016-08-05;23.0;109.284;128.14;18.8560491943
2016-08-06;0.0;109.7;129.08;19.3798199463
2016-08-06;1.0;109.655;123.47;13.8149783325
2016-08-06;2.0;109.523;119.16;9.63660064697
2016-08-06;3.0;109.474;119.01;9.53551269531
2016-08-06;4.0;109.465;114.9;5.4348815918
2016-08-06;5.0;109.389;108.11;1.27900756836
2016-08-06;6.0;109.218;128.88;19.6619290161
2016-08-06;7.0;110.485;132.43;21.9451062012
2016-08-06;8.0;112.059;136.11;24.0514672852
2016-08-06;9.0;117.038;159.6;42.5621124268
2016-08-06;10.0;117.049;160.8;43.7511642456
2016-08-06;11.0;116.916;162.08;45.1642971802
2016-08-06;12.0;117.155;163.53;46.375161438
2016-08-06;13.0;116.647;160.43;43.7825924683
2016-08-06;14.0;115.411;146.12;30.7085314941
2016-08-06;15.0;112.951;133.25;20.2992401123
2016-08-06;16.0;112.031;132.51;20.4787576294
2016-08-06;17.0;112.284;132.51;20.2259881592
2016-08-06;18.0;111.844;132.51;20.6659677124
2016-08-06;19.0;112.124;132.7;20.5759155273
2016-08-06;20.0;113.183;132.62;19.4365512085
2016-08-06;21.0;113.109;133.07;19.9612811279
2016-08-06;22.0;109.046;130.6;21.5544677734
2016-08-06;23.0;109.26;123.46;14.200020752
2016-08-07;0.0;109.621;119.45;9.82893676758
2016-08-07;1.0;109.639;113.0;3.3607635498
2016-08-07;2.0;109.777;101.79;7.98656555176
2016-08-07;3.0;109.649;101.25;8.39855957031
2016-08-07;4.0;109.869;95.01;14.8586218262
2016-08-07;5.0;108.832;78.04;30.7920922852
2016-08-07;6.0;109.487;93.88;15.6072283936
2016-08-07;7.0;109.468;101.8;7.66839904785
2016-08-07;8.0;109.426;123.39;13.9635549927
2016-08-07;9.0;113.335;129.27;15.9345889282
2016-08-07;10.0;113.621;131.51;17.8892266846
2016-08-07;11.0;114.104;132.7;18.5955688477
2016-08-07;12.0;114.337;132.71;18.3730020142
2016-08-07;13.0;114.59;132.7;18.1100646973
2016-08-07;14.0;111.024;129.32;18.2960131836
2016-08-07;15.0;109.222;129.29;20.0681982422
2016-08-07;16.0;109.135;129.28;20.1445477295
2016-08-07;17.0;109.037;129.31;20.2734399414
2016-08-07;18.0;109.221;132.7;23.4790679932
2016-08-07;19.0;109.473;133.26;23.7874810791
2016-08-07;20.0;109.487;134.16;24.6729470825
2016-08-07;21.0;109.583;136.1;26.5169464111
2016-08-07;22.0;110.288;133.05;22.761555481
2016-08-07;23.0;109.743;124.53;14.7870571899
2016-08-08;0.0;109.813;109.07;0.742942504883
2016-08-08;1.0;109.555;101.4;8.15453491211
2016-08-08;2.0;107.459;99.49;7.96861816406
2016-08-08;3.0;107.828;98.9;8.92804870605
2016-08-08;4.0;106.672;96.96;9.71163085938
2016-08-08;5.0;118.626;98.6;20.0264724731
2016-08-08;6.0;107.008;123.31;16.3022714233
2016-08-08;7.0;108.558;121.99;13.4315969849
2016-08-08;8.0;109.433;140.0;30.5669631958
2016-08-08;9.0;109.356;155.53;46.1743328857
2016-08-08;10.0;109.276;153.34;44.0638311768
2016-08-08;11.0;109.199;152.43;43.2312161255
2016-08-08;12.0;109.286;154.8;45.5140579224
2016-08-08;13.0;109.062;154.15;45.0884765625
2016-08-08;14.0;109.122;145.92;36.7977618408
2016-08-08;15.0;109.037;133.05;24.0134399414
2016-08-08;16.0;109.319;129.43;20.1106488037
2016-08-08;17.0;109.65;129.38;19.7301281738
2016-08-08;18.0;110.808;129.4;18.5916046143
2016-08-08;19.0;111.006;129.69;18.684430542
2016-08-08;20.0;111.087;145.15;34.0630554199
2016-08-08;21.0;111.276;148.2;36.9235412598
2016-08-08;22.0;111.536;132.71;21.1742791748
2016-08-08;23.0;110.506;128.56;18.054468689
2016-08-09;0.0;107.545;123.56;16.0145135498
2016-08-09;1.0;106.902;112.81;5.90822845459
2016-08-09;2.0;106.751;101.8;4.95080871582
2016-08-09;3.0;106.823;101.8;5.02334136963
2016-08-09;4.0;106.507;101.79;4.71687408447
2016-08-09;5.0;107.045;101.8;5.24518127441
2016-08-09;6.0;109.352;129.08;19.7276898193
2016-08-09;7.0;109.747;129.19;19.4433187866
2016-08-09;8.0;109.213;149.18;39.9671017456
2016-08-09;9.0;109.875;154.95;45.074671936
2016-08-09;10.0;109.295;150.01;40.7151391602
2016-08-09;11.0;109.037;154.9;45.8633712769
2016-08-09;12.0;109.151;157.43;48.278991394
2016-08-09;13.0;109.8;157.39;47.5895315552
2016-08-09;14.0;109.15;152.9;43.7498764038
2016-08-09;15.0;109.296;129.77;20.4737200928
2016-08-09;16.0;109.372;129.21;19.838074646
2016-08-09;17.0;109.272;129.21;19.9376687622
2016-08-09;18.0;109.198;129.28;20.0817196655
2016-08-09;19.0;109.187;137.49;28.303293457
2016-08-09;20.0;110.29;143.82;33.5298312378
2016-08-09;21.0;111.188;141.13;29.9424389648
2016-08-09;22.0;109.065;133.88;24.8153408813
2016-08-09;23.0;109.31;128.47;19.1600787354
2016-08-10;0.0;109.292;125.54;16.247901001
2016-08-10;1.0;108.025;119.68;11.6548001099
2016-08-10;2.0;105.97;116.85;10.8798156738
2016-08-10;3.0;106.124;116.98;10.8558621216
2016-08-10;4.0;106.237;114.96;8.72258850098
2016-08-10;5.0;106.72;112.85;6.12975463867
2016-08-10;6.0;109.28;130.3;21.0195968628
2016-08-10;7.0;109.567;132.65;23.0825408936
2016-08-10;8.0;109.191;154.17;44.9790667725
2016-08-10;9.0;109.315;161.11;51.7946923828
2016-08-10;10.0;109.168;158.62;49.4524432373
2016-08-10;11.0;109.45;162.71;53.2599572754
2016-08-10;12.0;109.667;163.29;53.6227331543
2016-08-10;13.0;110.619;160.43;49.8108364868
2016-08-10;14.0;109.977;156.95;46.973147583
2016-08-10;15.0;109.462;151.8;42.3380783081
2016-08-10;16.0;109.4;140.61;31.2095254517
2016-08-10;17.0;109.296;130.03;20.734208374
2016-08-10;18.0;109.195;130.63;21.4351605225
2016-08-10;19.0;109.181;142.51;33.3294122314
2016-08-10;20.0;109.881;151.25;41.3691253662
2016-08-10;21.0;109.507;144.21;34.7026071167
2016-08-10;22.0;109.362;133.42;24.0582904053
2016-08-10;23.0;109.376;129.1;19.7239013672
2016-08-11;0.0;109.759;124.08;14.3212109375
2016-08-11;1.0;109.712;111.18;1.46778839111
2016-08-11;2.0;109.633;102.9;6.73340759277
2016-08-11;3.0;109.853;102.81;7.04340118408
2016-08-11;4.0;109.574;102.41;7.16355499268
2016-08-11;5.0;109.376;101.79;7.58559509277
2016-08-11;6.0;109.217;130.07;20.8534014893
2016-08-11;7.0;109.376;130.22;20.8443362427
2016-08-11;8.0;109.611;147.44;37.8287557983
2016-08-11;9.0;111.227;159.01;47.7834603882
2016-08-11;10.0;110.665;157.92;47.2547167969
2016-08-11;11.0;111.832;159.61;47.7781442261
2016-08-11;12.0;111.594;159.39;47.7960592651
2016-08-11;13.0;111.708;164.89;53.1815115356
2016-08-11;14.0;111.533;156.86;45.3269647217
2016-08-11;15.0;110.367;154.65;44.2826904297
2016-08-11;16.0;109.257;145.16;35.9027978516
2016-08-11;17.0;109.24;134.72;25.4798419189
2016-08-11;18.0;109.263;138.04;28.776656189
2016-08-11;19.0;109.646;153.19;43.5441183472
2016-08-11;20.0;112.316;157.83;45.5140896606
2016-08-11;21.0;110.45;156.88;46.4301708984
2016-08-11;22.0;109.306;136.46;27.1537026978
2016-08-11;23.0;109.767;130.06;20.2933526611
2016-08-12;0.0;109.652;123.64;13.9875494385
2016-08-12;1.0;107.783;110.06;2.27673583984
2016-08-12;2.0;106.209;106.24;0.0309088134766
2016-08-12;3.0;106.429;106.78;0.35080078125
2016-08-12;4.0;106.493;105.07;1.42282073975
2016-08-12;5.0;106.766;105.6;1.16638031006
2016-08-12;6.0;109.177;130.7;21.523425293
2016-08-12;7.0;109.457;145.91;36.4525338745
2016-08-12;8.0;109.246;170.19;60.9438909912
2016-08-12;9.0;110.779;188.15;77.3706192017
2016-08-12;10.0;110.751;188.64;77.8887030029
2016-08-12;11.0;111.218;190.96;79.7419137573
2016-08-12;12.0;110.652;190.11;79.4578088379
2016-08-12;13.0;113.535;189.07;75.5354541016
2016-08-12;14.0;111.853;185.49;73.6371710205
2016-08-12;15.0;111.552;180.24;68.6879980469
2016-08-12;16.0;109.406;165.19;55.7837652588
2016-08-12;17.0;109.456;161.37;51.9135028076
2016-08-12;18.0;109.124;157.5;48.3755645752
2016-08-12;19.0;113.088;165.5;52.4118881226
2016-08-12;20.0;114.288;165.35;51.0624481201
2016-08-12;21.0;114.269;156.83;42.5608044434
2016-08-12;22.0;110.02;136.53;26.5098583984
2016-08-12;23.0;109.891;129.84;19.9488943481
2016-08-13;0.0;109.372;129.29;19.9175787354
2016-08-13;1.0;107.496;119.55;12.0543640137
2016-08-13;2.0;107.076;114.85;7.77362213135
2016-08-13;3.0;107.56;109.39;1.82964385986
2016-08-13;4.0;107.315;102.29;5.0254296875
2016-08-13;5.0;107.829;100.48;7.34901000977
2016-08-13;6.0;109.169;114.86;5.6911920166
2016-08-13;7.0;109.1;125.0;15.9004516602
2016-08-13;8.0;114.802;129.49;14.6880133057
2016-08-13;9.0;120.064;139.32;19.2560122681
2016-08-13;10.0;120.485;146.87;26.3849002075
2016-08-13;11.0;121.243;144.99;23.7465536499
2016-08-13;12.0;120.496;143.66;23.164119873
2016-08-13;13.0;121.252;137.09;15.8384664917
2016-08-13;14.0;121.039;130.2;9.16142578125
2016-08-13;15.0;119.771;129.44;9.66942352295
2016-08-13;16.0;115.821;129.36;13.53918396
2016-08-13;17.0;115.136;129.37;14.2337161255
2016-08-13;18.0;114.64;129.39;14.7500616455
2016-08-13;19.0;117.224;129.48;12.2557720947
2016-08-13;20.0;116.912;130.2;13.2880279541
2016-08-13;21.0;114.754;130.01;15.2557885742
2016-08-13;22.0;110.475;124.06;13.5845742798
2016-08-13;23.0;110.109;105.55;4.5592376709
2016-08-14;0.0;109.503;99.39;10.1132501221
2016-08-14;1.0;109.86;86.83;23.0302676392
2016-08-14;2.0;109.484;75.82;33.6635128784
2016-08-14;3.0;108.437;74.06;34.376958313
2016-08-14;4.0;107.057;73.51;33.5468618774
2016-08-14;5.0;107.232;73.49;33.7421624756
2016-08-14;6.0;109.677;73.5;36.1768951416
2016-08-14;7.0;109.301;74.39;34.9111627197
2016-08-14;8.0;109.227;101.69;7.53663879395
2016-08-14;9.0;109.28;117.08;7.80023010254
2016-08-14;10.0;109.645;121.0;11.3548583984
2016-08-14;11.0;109.176;121.84;12.6636541748
2016-08-14;12.0;109.114;122.07;12.9558642578
2016-08-14;13.0;109.259;121.06;11.8007226563
2016-08-14;14.0;109.503;115.29;5.78696350098
2016-08-14;15.0;109.421;110.2;0.779467773438
2016-08-14;16.0;109.32;109.73;0.409634094238
2016-08-14;17.0;109.229;111.93;2.70073669434
2016-08-14;18.0;109.132;117.32;8.18763000488
2016-08-14;19.0;109.069;129.68;20.611388855
2016-08-14;20.0;109.115;131.27;22.1549258423
2016-08-14;21.0;109.111;133.78;24.6690228271
2016-08-14;22.0;109.166;130.57;21.4037173462
2016-08-14;23.0;109.366;120.03;10.6639569092
2016-08-15;0.0;106.569;108.54;1.97130493164
2016-08-15;1.0;118.684;99.29;19.3936013794
2016-08-15;2.0;116.847;93.76;23.0871603394
2016-08-15;3.0;116.841;90.32;26.5207287598
2016-08-15;4.0;116.845;85.66;31.1852606201
2016-08-15;5.0;117.246;90.8;26.44634552
2016-08-15;6.0;117.296;99.93;17.3658297729
2016-08-15;7.0;117.262;115.44;1.82169586182
2016-08-15;8.0;107.56;129.75;22.1896743774
2016-08-15;9.0;109.518;131.43;21.9123684692
2016-08-15;10.0;109.373;131.47;22.0972964478
2016-08-15;11.0;109.312;131.59;22.2784460449
2016-08-15;12.0;109.36;130.71;21.3500299072
2016-08-15;13.0;109.256;131.0;21.7439193726
2016-08-15;14.0;109.397;129.83;20.4326000977
2016-08-15;15.0;109.586;128.99;19.4037878418
2016-08-15;16.0;109.484;124.08;14.5963116455
2016-08-15;17.0;109.325;129.76;20.4346520996
2016-08-15;18.0;109.544;131.94;22.3963674927
2016-08-15;19.0;110.212;134.83;24.6181774902
2016-08-15;20.0;110.385;139.3;28.914730835
2016-08-15;21.0;111.005;139.82;28.8145297241
2016-08-15;22.0;111.502;134.35;22.8476272583
2016-08-15;23.0;109.674;124.08;14.4058132935
2016-08-16;0.0;107.776;110.01;2.23394561768
2016-08-16;1.0;106.79;101.59;5.20033660889
2016-08-16;2.0;106.05;99.44;6.61041503906
2016-08-16;3.0;105.637;99.28;6.3574206543
2016-08-16;4.0;107.291;99.78;7.51118347168
2016-08-16;5.0;106.649;101.47;5.17914703369
2016-08-16;6.0;108.955;129.65;20.6946472168
2016-08-16;7.0;109.26;129.73;20.4701428223
2016-08-16;8.0;109.054;155.02;45.9657550049
2016-08-16;9.0;109.057;163.88;54.8229626465
2016-08-16;10.0;109.097;164.34;55.2427175903
2016-08-16;11.0;109.052;170.29;61.2376318359
2016-08-16;12.0;109.201;173.58;64.3788967896
2016-08-16;13.0;109.119;170.85;61.7305236816
2016-08-16;14.0;109.262;157.5;48.2383270264
2016-08-16;15.0;109.566;153.87;44.3036776733
2016-08-16;16.0;109.054;135.9;26.8456558228
2016-08-16;17.0;110.665;137.09;26.424564209
2016-08-16;18.0;111.497;144.34;32.8429525757
2016-08-16;19.0;112.236;152.19;39.9538473511
2016-08-16;20.0;112.841;165.12;52.2794390869
2016-08-16;21.0;112.985;156.61;43.6248468018
2016-08-16;22.0;112.418;138.53;26.1116192627
2016-08-16;23.0;110.674;128.98;18.3059658813
2016-08-17;0.0;108.038;129.85;21.8117080688
2016-08-17;1.0;106.948;122.44;15.4918035889
2016-08-17;2.0;106.724;119.43;12.7055508423
2016-08-17;3.0;106.997;119.32;12.3226473999
2016-08-17;4.0;107.155;119.45;12.2951766968
2016-08-17;5.0;107.766;119.41;11.6439172363
2016-08-17;6.0;109.437;131.06;21.6231637573
2016-08-17;7.0;109.373;145.58;36.207281189
2016-08-17;8.0;110.438;160.0;49.5617752075
2016-08-17;9.0;112.609;164.98;52.3711132812
2016-08-17;10.0;112.927;164.76;51.8334710693
2016-08-17;11.0;114.839;176.71;61.8708123779
2016-08-17;12.0;115.282;176.11;60.8284906006
2016-08-17;13.0;115.489;174.12;58.6309634399
2016-08-17;14.0;112.019;164.05;52.0308502197
2016-08-17;15.0;111.263;159.75;48.4871749878
2016-08-17;16.0;109.504;157.08;47.57609375
2016-08-17;17.0;109.287;156.33;47.0433331299
2016-08-17;18.0;110.199;155.48;45.2808270264
2016-08-17;19.0;112.693;158.23;45.5371670532
2016-08-17;20.0;116.252;164.43;48.178046875
2016-08-17;21.0;114.316;159.0;44.6843261719
2016-08-17;22.0;110.776;133.7;22.9241363525
2016-08-17;23.0;109.672;129.01;19.3382928467
2016-08-18;0.0;109.517;123.32;13.8031924438
2016-08-18;1.0;109.651;112.65;2.99945678711
2016-08-18;2.0;109.704;103.8;5.90400238037
2016-08-18;3.0;109.689;102.2;7.4887588501
2016-08-18;4.0;109.652;104.17;5.48154266357
2016-08-18;5.0;109.556;110.47;0.913824768066
2016-08-18;6.0;109.225;129.82;20.5948794556
2016-08-18;7.0;109.224;141.57;32.3456500244
2016-08-18;8.0;111.093;157.8;46.7069595337
2016-08-18;9.0;112.357;164.44;52.0832571411
2016-08-18;10.0;112.438;164.98;52.5418667603
2016-08-18;11.0;116.14;170.32;54.1800082397
2016-08-18;12.0;115.532;167.54;52.007880249
2016-08-18;13.0;115.945;166.99;51.0445883179
2016-08-18;14.0;113.641;159.55;45.9093902588
2016-08-18;15.0;112.818;157.04;44.2221746826
2016-08-18;16.0;112.646;151.9;39.2538513184
2016-08-18;17.0;113.103;150.16;37.0570184326
2016-08-18;18.0;113.461;150.19;36.7286657715
2016-08-18;19.0;114.193;155.84;41.6469839478
2016-08-18;20.0;115.47;162.46;46.9904641724
2016-08-18;21.0;114.431;153.0;38.5687332153
2016-08-18;22.0;109.037;133.59;24.553394165
2016-08-18;23.0;109.408;124.99;15.5823995972
2016-08-19;0.0;109.125;122.42;13.2946032715
2016-08-19;1.0;107.868;114.0;6.13150024414
2016-08-19;2.0;106.326;100.37;5.95597351074
2016-08-19;3.0;106.241;99.87;6.37071502686
2016-08-19;4.0;106.862;110.55;3.68788604736
2016-08-19;5.0;108.444;114.0;5.55578613281
2016-08-19;6.0;109.285;132.91;23.6251412964
2016-08-19;7.0;109.484;149.94;40.4557546997
2016-08-19;8.0;110.361;168.91;58.5488397217
2016-08-19;9.0;112.073;179.65;67.5768035889
2016-08-19;10.0;112.544;187.04;74.496237793
2016-08-19;11.0;114.192;192.28;78.0884716797
2016-08-19;12.0;112.602;194.8;82.1983840942
2016-08-19;13.0;113.572;191.15;77.578237915
2016-08-19;14.0;112.08;181.07;68.9895251465
2016-08-19;15.0;111.867;176.67;64.8034457397
2016-08-19;16.0;110.99;169.1;58.1096054077
2016-08-19;17.0;111.015;163.24;52.2245199585
2016-08-19;18.0;111.557;160.42;48.8634280396
2016-08-19;19.0;113.452;165.99;52.5377905273
2016-08-19;20.0;114.847;181.26;66.4130914307
2016-08-19;21.0;112.519;162.38;49.8605450439
2016-08-19;22.0;109.036;136.98;27.9436993408
2016-08-19;23.0;109.185;127.43;18.244994812
2016-08-20;0.0;108.825;128.36;19.5354074097
2016-08-20;1.0;108.076;123.37;15.2943850708
2016-08-20;2.0;105.52;121.07;15.549598999
2016-08-20;3.0;105.538;119.49;13.9517614746
2016-08-20;4.0;108.229;117.74;9.51103424072
2016-08-20;5.0;109.233;116.15;6.91651000977
2016-08-20;6.0;109.166;123.37;14.2041064453
2016-08-20;7.0;109.047;132.57;23.5230487061
2016-08-20;8.0;113.629;149.06;35.4309793091
2016-08-20;9.0;116.533;165.46;48.9272546387
2016-08-20;10.0;119.125;166.9;47.7753204346
2016-08-20;11.0;120.621;166.89;46.2685629272
2016-08-20;12.0;120.833;165.8;44.9666564941
2016-08-20;13.0;120.78;165.53;44.7497723389
2016-08-20;14.0;118.53;160.08;41.5502301025
2016-08-20;15.0;117.61;160.01;42.3999765015
2016-08-20;16.0;115.873;147.79;31.9170523071
2016-08-20;17.0;114.747;145.15;30.4027999878
2016-08-20;18.0;114.594;144.95;30.3557693481
2016-08-20;19.0;116.615;144.82;28.2052767944
2016-08-20;20.0;120.76;152.01;31.250486145
2016-08-20;21.0;115.556;144.98;29.4243206787
2016-08-20;22.0;109.781;128.34;18.5588415527
2016-08-20;23.0;109.037;121.17;12.1334246826
2016-08-21;0.0;109.714;117.5;7.78607177734
2016-08-21;1.0;109.676;95.19;14.4860940552
2016-08-21;2.0;109.65;95.16;14.4897497559
2016-08-21;3.0;109.635;94.92;14.7153607178
2016-08-21;4.0;109.679;93.16;16.5190313721
2016-08-21;5.0;109.594;90.04;19.5539712524
2016-08-21;6.0;109.282;95.15;14.1322341919
2016-08-21;7.0;109.52;116.84;7.31955322266
2016-08-21;8.0;110.198;129.18;18.9817272949
2016-08-21;9.0;114.45;135.9;21.4497665405
2016-08-21;10.0;114.699;139.68;24.9813000488
2016-08-21;11.0;114.82;139.69;24.8701452637
2016-08-21;12.0;114.135;139.68;25.5446850586
2016-08-21;13.0;115.365;138.55;23.1846588135
2016-08-21;14.0;114.753;137.38;22.6273907471
2016-08-21;15.0;115.49;133.21;17.7204598999
2016-08-21;16.0;112.235;133.04;20.8050527954
2016-08-21;17.0;111.874;133.16;21.2858087158
2016-08-21;18.0;112.407;134.11;21.7025598145
2016-08-21;19.0;112.563;138.54;25.9771032715
2016-08-21;20.0;114.15;145.01;30.8596398926
2016-08-21;21.0;112.709;141.83;29.1205960083
2016-08-21;22.0;109.277;132.98;23.70290802
2016-08-21;23.0;109.055;123.36;14.3047479248
2016-08-22;0.0;108.868;107.84;1.02824798584
2016-08-22;1.0;106.778;96.24;10.5379922485
2016-08-22;2.0;105.539;95.17;10.3689709473
2016-08-22;3.0;105.792;95.17;10.622427063
2016-08-22;4.0;105.741;95.19;10.5511422729
2016-08-22;5.0;105.591;107.07;1.47930938721
2016-08-22;6.0;107.0;129.53;22.5301525879
2016-08-22;7.0;109.36;132.89;23.5299383545
2016-08-22;8.0;109.355;157.81;48.4550805664
2016-08-22;9.0;109.087;171.48;62.3926663208
2016-08-22;10.0;109.15;185.0;75.8496246338
2016-08-22;11.0;109.126;192.61;83.4844888306
2016-08-22;12.0;109.091;193.21;84.1190270996
2016-08-22;13.0;109.188;193.45;84.2618515015
2016-08-22;14.0;109.465;185.65;76.1845153809
2016-08-22;15.0;109.036;171.64;62.6035238647
2016-08-22;16.0;109.341;161.27;51.928782959
2016-08-22;17.0;109.822;156.85;47.0280319214
2016-08-22;18.0;110.155;155.95;45.7952606201
2016-08-22;19.0;111.494;161.91;50.4156762695
2016-08-22;20.0;113.034;193.83;80.7964001465
2016-08-22;21.0;112.743;163.52;50.7767443848
2016-08-22;22.0;111.373;140.33;28.9568081665
2016-08-22;23.0;109.803;129.42;19.6168994141
2016-08-23;0.0;106.833;129.03;22.1973126221
2016-08-23;1.0;105.557;123.71;18.1529092407
2016-08-23;2.0;105.54;114.11;8.5703729248
2016-08-23;3.0;105.684;114.2;8.51590270996
2016-08-23;4.0;105.633;119.44;13.8067526245
2016-08-23;5.0;108.429;123.7;15.2714111328
2016-08-23;6.0;109.214;135.96;26.7457589722
2016-08-23;7.0;109.377;155.13;45.7526654053
2016-08-23;8.0;110.456;184.84;74.3844335938
2016-08-23;9.0;114.271;195.0;80.728805542
2016-08-23;10.0;118.611;198.07;79.4594271851
2016-08-23;11.0;120.98;202.25;81.2697372437
2016-08-23;12.0;120.518;204.03;83.5121624756
2016-08-23;13.0;121.61;201.33;79.7195797729
2016-08-23;14.0;119.993;200.0;80.0065155029
2016-08-23;15.0;116.14;182.79;66.6504125977
2016-08-23;16.0;113.618;167.35;53.7318893433
2016-08-23;17.0;112.914;164.32;51.4057391357
2016-08-23;18.0;113.238;160.09;46.8523214722
2016-08-23;19.0;115.045;167.43;52.3845516968
2016-08-23;20.0;124.461;194.85;70.3889633179
2016-08-23;21.0;115.932;164.47;48.538069458
2016-08-23;22.0;110.955;144.88;33.9250744629
2016-08-23;23.0;109.509;129.07;19.561317749
2016-08-24;0.0;109.648;124.32;14.6715167236
2016-08-24;1.0;109.626;115.0;5.37358856201
2016-08-24;2.0;108.741;107.89;0.851119384766
2016-08-24;3.0;108.975;109.44;0.46481842041
2016-08-24;4.0;109.711;112.48;2.7690625
2016-08-24;5.0;109.407;114.49;5.082628479
2016-08-24;6.0;109.516;134.91;25.3938943481
2016-08-24;7.0;110.316;153.98;43.6642880249
2016-08-24;8.0;118.645;180.0;61.3551483154
2016-08-24;9.0;121.487;196.8;75.3130233765
2016-08-24;10.0;122.614;200.42;77.8064364624
2016-08-24;11.0;123.799;203.06;79.2612939453
2016-08-24;12.0;123.768;203.58;79.8123303223
2016-08-24;13.0;123.717;203.02;79.3026766968
2016-08-24;14.0;124.349;200.8;76.4506958008
2016-08-24;15.0;119.446;193.95;74.5042907715
2016-08-24;16.0;115.22;168.02;52.8000445557
2016-08-24;17.0;114.869;160.4;45.5311950684
2016-08-24;18.0;114.1;160.49;46.3899023438
2016-08-24;19.0;116.264;166.95;50.6856719971
2016-08-24;20.0;124.129;193.83;69.7012768555
2016-08-24;21.0;115.599;160.49;44.8912756348
2016-08-24;22.0;111.948;142.87;30.9224902344
2016-08-24;23.0;109.093;129.18;20.0870129395
2016-08-25;0.0;109.031;128.46;19.4289331055
2016-08-25;1.0;108.08;118.12;10.0398379517
2016-08-25;2.0;106.941;107.92;0.978563232422
2016-08-25;3.0;107.425;106.5;0.925094604492
2016-08-25;4.0;108.237;114.45;6.2129699707
2016-08-25;5.0;108.872;115.64;6.76767791748
2016-08-25;6.0;109.161;132.0;22.8386459351
2016-08-25;7.0;109.509;145.7;36.1913406372
2016-08-25;8.0;116.37;173.91;57.5396386719
2016-08-25;9.0;121.395;194.71;73.3154458618
2016-08-25;10.0;122.917;197.61;74.6932214355
2016-08-25;11.0;123.657;199.93;76.272956543
2016-08-25;12.0;123.209;199.66;76.4514199829
2016-08-25;13.0;124.115;200.69;76.5745443726
2016-08-25;14.0;124.299;190.48;66.1811260986
2016-08-25;15.0;122.668;175.76;53.0916345215
2016-08-25;16.0;115.157;166.23;51.0733990479
2016-08-25;17.0;113.482;159.77;46.2879595947
2016-08-25;18.0;114.207;156.44;42.2328619385
2016-08-25;19.0;116.355;161.55;45.1949966431
2016-08-25;20.0;123.958;170.01;46.0519921875
2016-08-25;21.0;114.27;146.77;32.5004077148
2016-08-25;22.0;111.267;133.91;22.6433679199
2016-08-25;23.0;109.11;122.93;13.8203884888
2016-08-26;0.0;109.742;117.55;7.80776672363
2016-08-26;1.0;108.926;94.79;14.1358956909
2016-08-26;2.0;107.014;92.67;14.3443432617
2016-08-26;3.0;106.953;92.55;14.4032699585
2016-08-26;4.0;109.006;94.47;14.536477356
2016-08-26;5.0;109.385;95.48;13.9048190308
2016-08-26;6.0;109.262;129.35;20.0884185791
2016-08-26;7.0;109.334;140.66;31.3264428711
2016-08-26;8.0;114.787;166.6;51.8133789062
2016-08-26;9.0;120.97;190.82;69.8497393799
2016-08-26;10.0;122.257;192.41;70.1532174683
2016-08-26;11.0;122.869;197.12;74.2507144165
2016-08-26;12.0;122.079;193.16;71.0814248657
2016-08-26;13.0;123.471;192.41;68.9393426514
2016-08-26;14.0;121.146;182.99;61.8441412354
2016-08-26;15.0;116.969;174.45;57.4812805176
2016-08-26;16.0;114.728;156.81;42.0821481323
2016-08-26;17.0;113.297;152.99;39.6932470703
2016-08-26;18.0;112.989;153.37;40.3806811523
2016-08-26;19.0;114.725;158.25;43.5246734619
2016-08-26;20.0;116.509;168.0;51.4905319214
2016-08-26;21.0;110.334;148.9;38.566305542
2016-08-26;22.0;109.036;130.5;21.4637298584
2016-08-26;23.0;109.357;120.49;11.1332952881
2016-08-27;0.0;107.483;121.84;14.3568075562
2016-08-27;1.0;117.234;116.54;0.693810424805
2016-08-27;2.0;118.304;110.39;7.913855896
2016-08-27;3.0;117.177;105.97;11.2066052246
2016-08-27;4.0;111.573;107.88;3.69344055176
2016-08-27;5.0;107.763;103.14;4.62261901855
2016-08-27;6.0;109.318;120.62;11.3018771362
2016-08-27;7.0;109.376;128.9;19.5238479614
2016-08-27;8.0;112.759;149.68;36.9211956787
2016-08-27;9.0;120.118;166.38;46.2624768066
2016-08-27;10.0;120.809;169.15;48.3409179688
2016-08-27;11.0;122.113;170.14;48.0266424561
2016-08-27;12.0;120.18;170.14;49.9602514648
2016-08-27;13.0;121.029;166.87;45.8405123901
2016-08-27;14.0;118.827;164.99;46.162668457
2016-08-27;15.0;116.572;157.26;40.6881311035
2016-08-27;16.0;111.709;145.16;33.4509393311
2016-08-27;17.0;111.229;144.96;33.7305841064
2016-08-27;18.0;112.059;144.82;32.7613299561
2016-08-27;19.0;113.762;145.05;31.2879608154
2016-08-27;20.0;115.941;161.58;45.6390057373
2016-08-27;21.0;111.173;145.11;33.9370339966
2016-08-27;22.0;109.2;130.94;21.7404989624
2016-08-27;23.0;109.489;121.9;12.4110626221
2016-08-28;0.0;108.501;128.82;20.3190386963
2016-08-28;1.0;108.643;121.6;12.9570632935
2016-08-28;2.0;107.834;119.53;11.695687561
2016-08-28;3.0;107.03;117.36;10.3300012207
2016-08-28;4.0;107.673;106.11;1.56308807373
2016-08-28;5.0;107.093;94.91;12.1827734375
2016-08-28;6.0;109.445;119.31;9.86525970459
2016-08-28;7.0;109.248;125.44;16.1917700195
2016-08-28;8.0;110.212;132.27;22.0580554199
2016-08-28;9.0;114.537;140.23;25.6932415771
2016-08-28;10.0;115.34;148.87;33.5296984863
2016-08-28;11.0;115.55;152.6;37.0499053955
2016-08-28;12.0;115.314;156.23;40.9163861084
2016-08-28;13.0;115.65;152.8;37.1497238159
2016-08-28;14.0;116.08;145.22;29.139593811
2016-08-28;15.0;114.215;140.27;26.0554385376
2016-08-28;16.0;111.077;138.64;27.5629888916
2016-08-28;17.0;111.678;133.06;21.3822961426
2016-08-28;18.0;112.141;133.21;21.0692300415
2016-08-28;19.0;112.283;140.23;27.9469952393
2016-08-28;20.0;116.671;146.37;29.6985827637
2016-08-28;21.0;112.505;139.9;27.3951248169
2016-08-28;22.0;109.849;129.42;19.5705966187
2016-08-28;23.0;109.036;118.56;9.52362304688
2016-08-29;0.0;109.407;107.78;1.62735626221
2016-08-29;1.0;109.476;94.77;14.7058453369
2016-08-29;2.0;109.459;92.03;17.4286639404
2016-08-29;3.0;109.483;90.48;19.0025057983
2016-08-29;4.0;108.626;92.61;16.0164648438
2016-08-29;5.0;106.564;96.1;10.4639801025
2016-08-29;6.0;109.18;122.39;13.2100759888
2016-08-29;7.0;109.452;130.84;21.3875540161
2016-08-29;8.0;109.215;157.31;48.0948968506
2016-08-29;9.0;109.435;164.25;54.8149490356
2016-08-29;10.0;111.677;163.75;52.0733261108
2016-08-29;11.0;113.006;167.23;54.2235150146
2016-08-29;12.0;113.568;166.97;53.4015795898
2016-08-29;13.0;113.614;167.22;53.6057727051
2016-08-29;14.0;111.851;158.68;46.829230957
2016-08-29;15.0;110.915;154.41;43.4947930908
2016-08-29;16.0;110.979;144.89;33.9107672119
2016-08-29;17.0;109.569;139.97;30.4013354492
2016-08-29;18.0;109.859;142.59;32.7310980225
2016-08-29;19.0;111.968;155.63;43.6622418213
2016-08-29;20.0;112.962;174.89;61.9275061035
2016-08-29;21.0;111.686;153.38;41.6940106201
2016-08-29;22.0;109.841;129.78;19.9392407227
2016-08-29;23.0;109.169;121.47;12.3011157227
2016-08-30;0.0;106.75;115.97;9.22025177002
2016-08-30;1.0;107.801;104.27;3.53068969727
2016-08-30;2.0;109.216;95.5;13.7160415649
2016-08-30;3.0;111.131;95.49;15.6405999756
2016-08-30;4.0;107.941;95.5;12.4409561157
2016-08-30;5.0;105.531;105.47;0.0605709838867
2016-08-30;6.0;109.627;128.46;18.8331231689
2016-08-30;7.0;109.538;133.09;23.5524252319
2016-08-30;8.0;109.74;159.92;50.1800708008
2016-08-30;9.0;111.436;162.15;50.7137283325
2016-08-30;10.0;111.533;162.25;50.7172393799
2016-08-30;11.0;112.359;164.94;52.5806021118
2016-08-30;12.0;111.564;171.99;60.4259893799
2016-08-30;13.0;112.795;175.28;62.4852230835
2016-08-30;14.0;110.949;163.72;52.7708499146
2016-08-30;15.0;110.216;159.82;49.6037524414
2016-08-30;16.0;109.173;155.84;46.6668051147
2016-08-30;17.0;109.338;159.47;50.1322161865
2016-08-30;18.0;109.055;164.99;55.9349310303
2016-08-30;19.0;112.345;175.17;62.8246096802
2016-08-30;20.0;117.776;195.16;77.3844110107
2016-08-30;21.0;112.441;167.79;55.34859375
2016-08-30;22.0;109.292;145.33;36.0375500488
2016-08-30;23.0;109.451;128.47;19.0188052368
2016-08-31;0.0;107.039;122.39;15.3506628418
2016-08-31;1.0;105.539;115.97;10.4309527588
2016-08-31;2.0;114.614;109.31;5.30391448975
2016-08-31;3.0;112.696;109.76;2.93604492187
2016-08-31;4.0;110.551;115.98;5.42850158691
2016-08-31;5.0;106.888;122.35;15.4616485596
2016-08-31;6.0;109.398;143.0;33.6024703979
2016-08-31;7.0;109.467;168.95;59.483416748
2016-08-31;8.0;110.527;196.02;85.4932208252
2016-08-31;9.0;111.097;207.81;96.7129312134
2016-08-31;10.0;111.346;207.81;96.4644494629
2016-08-31;11.0;112.06;211.15;99.0898117065
2016-08-31;12.0;113.682;215.05;101.367649841
2016-08-31;13.0;115.822;211.15;95.3276885986
2016-08-31;14.0;112.912;207.82;94.9081958008
2016-08-31;15.0;112.273;206.0;93.726852417
2016-08-31;16.0;111.703;192.72;81.0171038818
2016-08-31;17.0;113.528;178.03;64.5024349976
2016-08-31;18.0;115.949;179.99;64.0408880615
2016-08-31;19.0;118.95;191.01;72.0602853394
2016-08-31;20.0;124.084;207.83;83.7457409668
2016-08-31;21.0;116.973;173.06;56.0869241333
2016-08-31;22.0;112.303;143.04;30.7369528198
2016-08-31;23.0;109.037;124.77;15.7334094238
2016-09-01;0.0;108.588;122.4;13.8120407104
2016-09-01;1.0;107.727;116.92;9.19344512939
2016-09-01;2.0;106.734;114.9;8.16606750488
2016-09-01;3.0;107.079;116.68;9.60108917236
2016-09-01;4.0;108.772;116.87;8.097684021
2016-09-01;5.0;109.668;122.38;12.7117565918
2016-09-01;6.0;109.264;142.84;33.5764959717
2016-09-01;7.0;113.52;157.08;43.5600033569
2016-09-01;8.0;120.981;184.59;63.6093557739
2016-09-01;9.0;124.536;189.59;65.0538519287
2016-09-01;10.0;124.775;191.54;66.7653723145
2016-09-01;11.0;125.754;207.8;82.0455444336
2016-09-01;12.0;126.951;204.15;77.199407959
2016-09-01;13.0;126.018;198.19;72.1723532104
2016-09-01;14.0;125.816;181.72;55.9036700439
2016-09-01;15.0;125.621;165.58;39.9590893555
2016-09-01;16.0;122.306;158.0;35.6937789917
2016-09-01;17.0;118.311;156.81;38.4991021729
2016-09-01;18.0;119.64;162.2;42.560458374
2016-09-01;19.0;122.859;173.13;50.2708843994
2016-09-01;20.0;126.95;198.9;71.9502319336
2016-09-01;21.0;117.565;161.94;44.3751654053
2016-09-01;22.0;110.748;145.2;34.4519683838
2016-09-01;23.0;109.357;125.0;15.643447876
